2023年の夏は観測史上最も暑かった
…
# データを合体させる
temps <- bind_rows(til22, only23) %>% 
  mutate(cities=ifelse(place %in% c("tokyo","nagoya","osaka","fukuoka"),"1","0")) %>% #　４都市のデータにタグ
  select(date,avg,max,min,place,cities) %>% 
  distinct(date,avg,max,min,place,cities)

こんな感じのデータ。

temps

## # A tibble: 904,712 × 6
##    date         avg   max   min place cities
##    <date>     <dbl> <dbl> <dbl> <chr> <chr> 
##  1 1875-01-01    NA    NA    NA osaka 1     
##  2 1875-01-02    NA    NA    NA osaka 1     
##  3 1875-01-03    NA    NA    NA osaka 1     
##  4 1875-01-04    NA    NA    NA osaka 1     
##  5 1875-01-05    NA    NA    NA osaka 1     
##  6 1875-01-06    NA    NA    NA osaka 1     
##  7 1875-01-07    NA    NA    NA osaka 1     
##  8 1875-01-08    NA    NA    NA osaka 1     
##  9 1875-01-09    NA    NA    NA osaka 1     
## 10 1875-01-10    NA    NA    NA osaka 1     
## # … with 904,702 more rows
…
